HEAD,CHEST,ARM,LEGS,CAPE,ADD1,ADD2
Headguard,Chestguard,Guards,Legplates,Cloak,Glimmering,Hope
Faceguard,Breastplate,Armguards,Platelegs,Drape,Flaming,Death
Greathelm,Armor,Gauntlets,Leggings,Cape,Burning,Light
Helm,Chestplate,Shoulders,Greaves,Shroud,Peaceful,Darkness
Crown,Chainmail,Spaulders,Leg guards,Wrap,Shining,Pain
Helmet,Platemail,Armplates,Shindard,X,Shimmering,Revenge
Headplate,Scalemail,Shraiders,X,X,Searing,Stone
Healdrun,Battleplate,X,X,X,Smoking,Mercy
X,Greatplate,X,X,X,Corrupted,Justice
X,Chestpiece,X,X,X,Undying,Caress
X,Chealdrun,X,X,X,Godly,Song
X,X,X,X,X,Divine,Prayer
X,X,X,X,X,Shattered,Destruction
X,X,X,X,X,Endless,Defeat
X,X,X,X,X,Holy,Earth
X,X,X,X,X,Unholy,Power
X,X,X,X,X,Ancient,Sparkles
X,X,X,X,X,Advanced,Pleasure
X,X,X,X,X,Suffering,Style
X,X,X,X,X,Breaking,Sky
X,X,X,X,X,Frozen,Night
X,X,X,X,X,Glowing,Daylight
X,X,X,X,X,Enchanting,Stars
X,X,X,X,X,Potent,Thinking
X,X,X,X,X,Fatal,Heroes
X,X,X,X,X,Fallen,Madness
X,X,X,X,X,Hearts,Sting
X,X,X,X,X,Souls,Apocalypse
X,X,X,X,X,X,Melody
X,X,X,X,X,X,Life