%YAML 1.1
%TAG !u! tag:unity3d.com,2011:
--- !u!78 &1
TagManager:
  serializedVersion: 2
  tags:
  - Player1
  - ScreenDmg
  - Floor
  - Enemy
  - Projectile
  - Player2
  - WolfBite
  - Combo
  - Meteor
  - gemImg
  - GoldEnd
  - Strawberry
  - Blue Rose
  - Green Leaf
  - Bananna
  - Eggplant
  - AnimatedPlayer
  - Selector
  layers:
  - Default
  - TransparentFX
  - Ignore Raycast
  - 
  - Water
  - UI
  - 
  - 
  - Gold
  - MagicDmg
  - Enemy
  - Floor
  - 
  - 
  - 
  - 
  - 
  - 
  - 
  - 
  - 
  - 
  - 
  - 
  - 
  - 
  - 
  - 
  - 
  - 
  - 
  - 
  m_SortingLayers:
  - name: Scenery
    uniqueID: 1951692021
    locked: 0
  - name: FX
    uniqueID: 2324788821
    locked: 0
  - name: Default
    uniqueID: 0
    locked: 0
  - name: New Layer
    uniqueID: 822183087
    locked: 0
